{
  "_links": {
    "next": {
      "href": "http://beauties-lab317.rhcloud.com/articles?page=3&size=20"
    },
    "prev": {
      "href": "http://beauties-lab317.rhcloud.com/articles?page=1&size=20"
    },
    "self": {
      "href": "http://beauties-lab317.rhcloud.com/articles?page=2&size=20{&sort}",
      "templated": true
    },
    "search": {
      "href": "http://beauties-lab317.rhcloud.com/articles/search"
    }
  },
  "_embedded": {
    "articles": [
      {
        "url": "/bbs/Beauty/M.1448722261.A.B9C.html",
        "title": "[正妹] 伊豆櫻花&和服",
        "pushNum": 4,
        "author": "luckyjune",
        "createdTime": "2015-12-03T06:51:10.943+0000",
        "articleImage": [
          {
            "url": "//i.imgur.com/fGLJ5gS.jpg"
          },
          {
            "url": "//i.imgur.com/wnIHc6I.jpg"
          }
        ],
        "randomThumbnailUrl": "http://thumborservice-lab317.rhcloud.com/unsafe/300x300/http://i.imgur.com/wnIHc6I.jpg",
        "urlWithPrefix": "https://www.ptt.cc/bbs/Beauty/M.1448722261.A.B9C.html",
        "imageUrlRandom": "http://i.imgur.com/wnIHc6I.jpg",
        "_links": {
          "self": {
            "href": "http://beauties-lab317.rhcloud.com/articles/2"
          },
          "articleImages": {
            "href": "http://beauties-lab317.rhcloud.com/articles/2/articleImages"
          }
        }
      },
      {
        "url": "/bbs/Beauty/M.1448622614.A.88A.html",
        "title": "[討論] 很兇的鮮奶饅頭妹",
        "pushNum": 30,
        "author": "f408",
        "createdTime": "2015-12-02T12:10:31.278+0000",
        "articleImage": [
          {
            "url": "//i.imgur.com/cPyFEmL.jpg"
          },
          {
            "url": "//i.imgur.com/LPH7AAb.jpg"
          },
          {
            "url": "//i.imgur.com/JWwkGlx.jpg"
          },
          {
            "url": "//i.imgur.com/iFexCn5.jpg"
          },
          {
            "url": "//i.imgur.com/PP0gYWh.jpg"
          },
          {
            "url": "//i.imgur.com/dMpi1JG.jpg"
          }
        ],
        "randomThumbnailUrl": "http://thumborservice-lab317.rhcloud.com/unsafe/300x300/http://i.imgur.com/dMpi1JG.jpg",
        "urlWithPrefix": "https://www.ptt.cc/bbs/Beauty/M.1448622614.A.88A.html",
        "imageUrlRandom": "http://i.imgur.com/dMpi1JG.jpg",
        "_links": {
          "self": {
            "href": "http://beauties-lab317.rhcloud.com/articles/31"
          },
          "articleImages": {
            "href": "http://beauties-lab317.rhcloud.com/articles/31/articleImages"
          }
        }
      },
      {
        "url": "/bbs/Beauty/M.1448623155.A.05E.html",
        "title": "[正妹] 實況正妹 這個我可以",
        "pushNum": 5,
        "author": "IAMPANDA",
        "createdTime": "2015-12-02T12:10:31.278+0000",
        "articleImage": [
          {
            "url": "//i.imgur.com/7Elc6Nm.jpg"
          },
          {
            "url": "//i.imgur.com/FYsSBXB.jpg"
          }
        ],
        "randomThumbnailUrl": "http://thumborservice-lab317.rhcloud.com/unsafe/300x300/http://i.imgur.com/FYsSBXB.jpg",
        "urlWithPrefix": "https://www.ptt.cc/bbs/Beauty/M.1448623155.A.05E.html",
        "imageUrlRandom": "http://i.imgur.com/FYsSBXB.jpg",
        "_links": {
          "self": {
            "href": "http://beauties-lab317.rhcloud.com/articles/32"
          },
          "articleImages": {
            "href": "http://beauties-lab317.rhcloud.com/articles/32/articleImages"
          }
        }
      },
      {
        "url": "/bbs/Beauty/M.1448628694.A.06F.html",
        "title": "[正妹] 有點氣質有點兇",
        "pushNum": 28,
        "author": "dongwamilk",
        "createdTime": "2015-12-02T12:10:31.278+0000",
        "articleImage": [
          {
            "url": "//i.imgur.com/saHskIb.jpg"
          },
          {
            "url": "//i.imgur.com/KyjnYVX.jpg"
          },
          {
            "url": "//i.imgur.com/JigoCpk.jpg"
          },
          {
            "url": "//i.imgur.com/lsEd3xo.jpg"
          },
          {
            "url": "//i.imgur.com/crBJLdJ.jpg"
          }
        ],
        "randomThumbnailUrl": "http://thumborservice-lab317.rhcloud.com/unsafe/300x300/http://i.imgur.com/crBJLdJ.jpg",
        "urlWithPrefix": "https://www.ptt.cc/bbs/Beauty/M.1448628694.A.06F.html",
        "imageUrlRandom": "http://i.imgur.com/crBJLdJ.jpg",
        "_links": {
          "self": {
            "href": "http://beauties-lab317.rhcloud.com/articles/33"
          },
          "articleImages": {
            "href": "http://beauties-lab317.rhcloud.com/articles/33/articleImages"
          }
        }
      },
      {
        "url": "/bbs/Beauty/M.1448629335.A.CCA.html",
        "title": "[正妹] Maya Stepper 德國模特兒 171cm",
        "pushNum": 12,
        "author": "Aotearoa",
        "createdTime": "2015-12-02T12:10:31.278+0000",
        "articleImage": [
          {
            "url": "//i.imgur.com/0uoyJIl.jpg"
          },
          {
            "url": "//i.imgur.com/bACY0b9.jpg"
          },
          {
            "url": "//i.imgur.com/jkYK073.jpg"
          },
          {
            "url": "//i.imgur.com/7VMmYZR.jpg"
          },
          {
            "url": "//i.imgur.com/wQR8Zp1.jpg"
          },
          {
            "url": "//i.imgur.com/vH18Ybr.jpg"
          },
          {
            "url": "//i.imgur.com/yuTWGwu.jpg"
          },
          {
            "url": "//i.imgur.com/aOf486w.jpg"
          },
          {
            "url": "//i.imgur.com/2i5Pczq.jpg"
          },
          {
            "url": "//i.imgur.com/pIBAG5C.jpg"
          },
          {
            "url": "//i.imgur.com/C0d1TGg.jpg"
          },
          {
            "url": "//i.imgur.com/E4WVuDt.jpg"
          },
          {
            "url": "//i.imgur.com/4hUHtNd.jpg"
          },
          {
            "url": "//i.imgur.com/E0bwYL7.jpg"
          },
          {
            "url": "//i.imgur.com/JaKJ8KS.jpg"
          },
          {
            "url": "//i.imgur.com/ovAJqef.jpg"
          },
          {
            "url": "//i.imgur.com/alRBoU7.jpg"
          },
          {
            "url": "//i.imgur.com/kjRcTQT.jpg"
          },
          {
            "url": "//i.imgur.com/4N5GAx3.jpg"
          },
          {
            "url": "//i.imgur.com/fAPkGq5.jpg"
          }
        ],
        "randomThumbnailUrl": "http://thumborservice-lab317.rhcloud.com/unsafe/300x300/http://i.imgur.com/fAPkGq5.jpg",
        "urlWithPrefix": "https://www.ptt.cc/bbs/Beauty/M.1448629335.A.CCA.html",
        "imageUrlRandom": "http://i.imgur.com/fAPkGq5.jpg",
        "_links": {
          "self": {
            "href": "http://beauties-lab317.rhcloud.com/articles/34"
          },
          "articleImages": {
            "href": "http://beauties-lab317.rhcloud.com/articles/34/articleImages"
          }
        }
      },
      {
        "url": "/bbs/Beauty/M.1448614028.A.67E.html",
        "title": "[帥哥] 朋友被尋人，就順便出賣了",
        "pushNum": 8,
        "author": "panshou",
        "createdTime": "2015-11-30T05:44:04.916+0000",
        "articleImage": [],
        "randomThumbnailUrl": "",
        "urlWithPrefix": "https://www.ptt.cc/bbs/Beauty/M.1448614028.A.67E.html",
        "imageUrlRandom": "",
        "_links": {
          "self": {
            "href": "http://beauties-lab317.rhcloud.com/articles/29"
          },
          "articleImages": {
            "href": "http://beauties-lab317.rhcloud.com/articles/29/articleImages"
          }
        }
      },
      {
        "url": "/bbs/Beauty/M.1448640130.A.E67.html",
        "title": "[神人] 日本電影「奪命捉迷藏」中一位女學生",
        "pushNum": 0,
        "author": "t52za7",
        "createdTime": "2015-12-02T12:10:31.278+0000",
        "articleImage": [
          {
            "url": "//i.imgur.com/4xwD1sx.jpg"
          },
          {
            "url": "//i.imgur.com/P1u75oW.jpg"
          }
        ],
        "randomThumbnailUrl": "http://thumborservice-lab317.rhcloud.com/unsafe/300x300/http://i.imgur.com/P1u75oW.jpg",
        "urlWithPrefix": "https://www.ptt.cc/bbs/Beauty/M.1448640130.A.E67.html",
        "imageUrlRandom": "http://i.imgur.com/P1u75oW.jpg",
        "_links": {
          "self": {
            "href": "http://beauties-lab317.rhcloud.com/articles/9"
          },
          "articleImages": {
            "href": "http://beauties-lab317.rhcloud.com/articles/9/articleImages"
          }
        }
      },
      {
        "url": "/bbs/Beauty/M.1423752558.A.849.html",
        "title": "[公告] 表特板板規 (2015.2.12)",
        "pushNum": 0,
        "author": "GeminiMan",
        "createdTime": "2015-12-05T18:39:37.510+0000",
        "articleImage": [],
        "randomThumbnailUrl": "",
        "urlWithPrefix": "https://www.ptt.cc/bbs/Beauty/M.1423752558.A.849.html",
        "imageUrlRandom": "",
        "_links": {
          "self": {
            "href": "http://beauties-lab317.rhcloud.com/articles/7"
          },
          "articleImages": {
            "href": "http://beauties-lab317.rhcloud.com/articles/7/articleImages"
          }
        }
      },
      {
        "url": "/bbs/Beauty/M.1448714488.A.BE3.html",
        "title": "[正妹] 美人尖",
        "pushNum": 5,
        "author": "Sunzhongshan",
        "createdTime": "2015-11-29T12:06:39.740+0000",
        "articleImage": [
          {
            "url": "//i.imgur.com/vrD0BYT.jpg"
          },
          {
            "url": "//i.imgur.com/bM5Qfo6.jpg"
          },
          {
            "url": "//i.imgur.com/NhPkmOx.jpg"
          },
          {
            "url": "//i.imgur.com/6JdlG7i.jpg"
          },
          {
            "url": "//i.imgur.com/Gl5qWO1.jpg"
          },
          {
            "url": "//i.imgur.com/G8BNQwK.jpg"
          }
        ],
        "randomThumbnailUrl": "http://thumborservice-lab317.rhcloud.com/unsafe/300x300/http://i.imgur.com/G8BNQwK.jpg",
        "urlWithPrefix": "https://www.ptt.cc/bbs/Beauty/M.1448714488.A.BE3.html",
        "imageUrlRandom": "http://i.imgur.com/G8BNQwK.jpg",
        "_links": {
          "self": {
            "href": "http://beauties-lab317.rhcloud.com/articles/18"
          },
          "articleImages": {
            "href": "http://beauties-lab317.rhcloud.com/articles/18/articleImages"
          }
        }
      },
      {
        "url": "/bbs/Beauty/M.1448464646.A.B08.html",
        "title": "[神人] 網拍MD",
        "pushNum": 0,
        "author": "diuo",
        "createdTime": "2015-12-01T00:26:58.095+0000",
        "articleImage": [],
        "randomThumbnailUrl": "",
        "urlWithPrefix": "https://www.ptt.cc/bbs/Beauty/M.1448464646.A.B08.html",
        "imageUrlRandom": "",
        "_links": {
          "self": {
            "href": "http://beauties-lab317.rhcloud.com/articles/48"
          },
          "articleImages": {
            "href": "http://beauties-lab317.rhcloud.com/articles/48/articleImages"
          }
        }
      },
      {
        "url": "/bbs/Beauty/M.1448469716.A.FCA.html",
        "title": "Re: [神人] 網拍MD",
        "pushNum": 38,
        "author": "qscxz",
        "createdTime": "2015-12-01T00:26:58.095+0000",
        "articleImage": [
          {
            "url": "//i.imgur.com/8eZ8VEJ.jpg"
          },
          {
            "url": "//i.imgur.com/mC6JfDG.jpg"
          },
          {
            "url": "//i.imgur.com/f67KSIo.jpg"
          },
          {
            "url": "//i.imgur.com/fhXhkmW.jpg"
          }
        ],
        "randomThumbnailUrl": "http://thumborservice-lab317.rhcloud.com/unsafe/300x300/http://i.imgur.com/fhXhkmW.jpg",
        "urlWithPrefix": "https://www.ptt.cc/bbs/Beauty/M.1448469716.A.FCA.html",
        "imageUrlRandom": "http://i.imgur.com/fhXhkmW.jpg",
        "_links": {
          "self": {
            "href": "http://beauties-lab317.rhcloud.com/articles/49"
          },
          "articleImages": {
            "href": "http://beauties-lab317.rhcloud.com/articles/49/articleImages"
          }
        }
      },
      {
        "url": "/bbs/Beauty/M.1448722929.A.02B.html",
        "title": "[神人] 區間車上氣質女",
        "pushNum": 16,
        "author": "victor25",
        "createdTime": "2015-12-03T06:51:10.943+0000",
        "articleImage": [
          {
            "url": "//i.imgur.com/djE6KaD.jpg"
          }
        ],
        "randomThumbnailUrl": "http://thumborservice-lab317.rhcloud.com/unsafe/300x300/http://i.imgur.com/djE6KaD.jpg",
        "urlWithPrefix": "https://www.ptt.cc/bbs/Beauty/M.1448722929.A.02B.html",
        "imageUrlRandom": "http://i.imgur.com/djE6KaD.jpg",
        "_links": {
          "self": {
            "href": "http://beauties-lab317.rhcloud.com/articles/3"
          },
          "articleImages": {
            "href": "http://beauties-lab317.rhcloud.com/articles/3/articleImages"
          }
        }
      },
      {
        "url": "/bbs/Beauty/M.1448585539.A.679.html",
        "title": "Re: [正妹] 飯窪春菜",
        "pushNum": 0,
        "author": "monkeyrt",
        "createdTime": "2015-12-02T12:10:31.277+0000",
        "articleImage": [
          {
            "url": "//i.imgur.com/5rvYSz4.jpg"
          },
          {
            "url": "//i.imgur.com/Ks3qpls.jpg"
          },
          {
            "url": "//i.imgur.com/oKwuSGq.jpg"
          },
          {
            "url": "//i.imgur.com/aQzslGZ.jpg"
          },
          {
            "url": "//i.imgur.com/7g7oNAW.jpg"
          },
          {
            "url": "//i.imgur.com/eVCjKtm.jpg"
          },
          {
            "url": "//i.imgur.com/zG77LGV.jpg"
          },
          {
            "url": "//i.imgur.com/FXHjXbm.jpg"
          },
          {
            "url": "//i.imgur.com/057C4jl.jpg"
          },
          {
            "url": "//i.imgur.com/2E6XroG.jpg"
          }
        ],
        "randomThumbnailUrl": "http://thumborservice-lab317.rhcloud.com/unsafe/300x300/http://i.imgur.com/2E6XroG.jpg",
        "urlWithPrefix": "https://www.ptt.cc/bbs/Beauty/M.1448585539.A.679.html",
        "imageUrlRandom": "http://i.imgur.com/2E6XroG.jpg",
        "_links": {
          "self": {
            "href": "http://beauties-lab317.rhcloud.com/articles/24"
          },
          "articleImages": {
            "href": "http://beauties-lab317.rhcloud.com/articles/24/articleImages"
          }
        }
      },
      {
        "url": "/bbs/Beauty/M.1448586410.A.DB3.html",
        "title": "[正妹] 田辺奈菜美",
        "pushNum": 0,
        "author": "monkeyrt",
        "createdTime": "2015-12-02T12:10:31.277+0000",
        "articleImage": [
          {
            "url": "http://www.bjin.me/images/pic21254.jpg"
          },
          {
            "url": "http://livedoor.blogimg.jp/helloprocv/imgs/1/a/1a8eb5b3.jpg"
          },
          {
            "url": "http://kawaiinanamin.com/loader/img/nup234.jpg"
          },
          {
            "url": "http://wecan.fujitvkidsclub.jp/girls/up/20100422Tanabe-thumb.jpg"
          }
        ],
        "randomThumbnailUrl": "http://thumborservice-lab317.rhcloud.com/unsafe/300x300/http://wecan.fujitvkidsclub.jp/girls/up/20100422Tanabe-thumb.jpg",
        "urlWithPrefix": "https://www.ptt.cc/bbs/Beauty/M.1448586410.A.DB3.html",
        "imageUrlRandom": "http://wecan.fujitvkidsclub.jp/girls/up/20100422Tanabe-thumb.jpg",
        "_links": {
          "self": {
            "href": "http://beauties-lab317.rhcloud.com/articles/25"
          },
          "articleImages": {
            "href": "http://beauties-lab317.rhcloud.com/articles/25/articleImages"
          }
        }
      },
      {
        "url": "/bbs/Beauty/M.1448607632.A.765.html",
        "title": "[正妹] 三上悠亜 みかみ ゆあ",
        "pushNum": 32,
        "author": "dekirin",
        "createdTime": "2015-12-02T12:10:31.277+0000",
        "articleImage": [
          {
            "url": "//i.imgur.com/prvuObX.jpg"
          },
          {
            "url": "//i.imgur.com/tVpTUsG.jpg"
          },
          {
            "url": "//i.imgur.com/HpmbyBE.jpg"
          },
          {
            "url": "//i.imgur.com/DAUvr7E.jpg"
          },
          {
            "url": "//i.imgur.com/UhpjdcM.jpg"
          },
          {
            "url": "//i.imgur.com/GnPHed0.jpg"
          },
          {
            "url": "//i.imgur.com/dCXznKL.jpg"
          },
          {
            "url": "//i.imgur.com/k1kgdzx.jpg"
          },
          {
            "url": "//i.imgur.com/CKqLwgR.jpg"
          },
          {
            "url": "//i.imgur.com/BFskgbm.jpg"
          },
          {
            "url": "//i.imgur.com/46UMUTi.jpg"
          },
          {
            "url": "//i.imgur.com/Bac2YcV.jpg"
          },
          {
            "url": "//i.imgur.com/96nUeez.jpg"
          },
          {
            "url": "//i.imgur.com/UnkzwqZ.jpg"
          },
          {
            "url": "//i.imgur.com/YiBPUqf.jpg"
          },
          {
            "url": "//i.imgur.com/QWkWaYG.jpg"
          },
          {
            "url": "//i.imgur.com/PBv0kyK.jpg"
          },
          {
            "url": "//i.imgur.com/IxM4X61.jpg"
          },
          {
            "url": "//i.imgur.com/bHfohFE.jpg"
          },
          {
            "url": "//i.imgur.com/9EjNy1U.jpg"
          },
          {
            "url": "//i.imgur.com/jFeYoKN.jpg"
          }
        ],
        "randomThumbnailUrl": "http://thumborservice-lab317.rhcloud.com/unsafe/300x300/http://i.imgur.com/jFeYoKN.jpg",
        "urlWithPrefix": "https://www.ptt.cc/bbs/Beauty/M.1448607632.A.765.html",
        "imageUrlRandom": "http://i.imgur.com/jFeYoKN.jpg",
        "_links": {
          "self": {
            "href": "http://beauties-lab317.rhcloud.com/articles/26"
          },
          "articleImages": {
            "href": "http://beauties-lab317.rhcloud.com/articles/26/articleImages"
          }
        }
      },
      {
        "url": "/bbs/Beauty/M.1448608995.A.78C.html",
        "title": "[廣告] 陳葳越來越正了~",
        "pushNum": 20,
        "author": "Ycool",
        "createdTime": "2015-12-02T12:10:31.277+0000",
        "articleImage": [
          {
            "url": "//i.imgur.com/OZzclKV.jpg"
          }
        ],
        "randomThumbnailUrl": "http://thumborservice-lab317.rhcloud.com/unsafe/300x300/http://i.imgur.com/OZzclKV.jpg",
        "urlWithPrefix": "https://www.ptt.cc/bbs/Beauty/M.1448608995.A.78C.html",
        "imageUrlRandom": "http://i.imgur.com/OZzclKV.jpg",
        "_links": {
          "self": {
            "href": "http://beauties-lab317.rhcloud.com/articles/27"
          },
          "articleImages": {
            "href": "http://beauties-lab317.rhcloud.com/articles/27/articleImages"
          }
        }
      },
      {
        "url": "/bbs/Beauty/M.1448505540.A.BEE.html",
        "title": "[正妹] 微奶特",
        "pushNum": 72,
        "author": "lazack",
        "createdTime": "2015-12-01T14:29:17.264+0000",
        "articleImage": [
          {
            "url": "//i.imgur.com/8GZP86X.jpg"
          },
          {
            "url": "//i.imgur.com/oUD2vyQ.jpg"
          },
          {
            "url": "//i.imgur.com/8jf6mMc.jpg"
          },
          {
            "url": "//i.imgur.com/ioGTN25.jpg"
          },
          {
            "url": "//i.imgur.com/XqivEYY.jpg"
          },
          {
            "url": "//i.imgur.com/ZROd49V.jpg"
          },
          {
            "url": "//i.imgur.com/Yrl3AiC.jpg"
          }
        ],
        "randomThumbnailUrl": "http://thumborservice-lab317.rhcloud.com/unsafe/300x300/http://i.imgur.com/Yrl3AiC.jpg",
        "urlWithPrefix": "https://www.ptt.cc/bbs/Beauty/M.1448505540.A.BEE.html",
        "imageUrlRandom": "http://i.imgur.com/Yrl3AiC.jpg",
        "_links": {
          "self": {
            "href": "http://beauties-lab317.rhcloud.com/articles/52"
          },
          "articleImages": {
            "href": "http://beauties-lab317.rhcloud.com/articles/52/articleImages"
          }
        }
      },
      {
        "url": "/bbs/Beauty/M.1448718189.A.5CE.html",
        "title": "[正妹] 京都星巴克",
        "pushNum": 73,
        "author": "wosopu",
        "createdTime": "2015-12-03T06:51:10.943+0000",
        "articleImage": [
          {
            "url": "//i.imgur.com/oDfmbOi.jpg"
          },
          {
            "url": "//i.imgur.com/zhefudw.jpg"
          },
          {
            "url": "//i.imgur.com/n7XEqp2.jpg"
          }
        ],
        "randomThumbnailUrl": "http://thumborservice-lab317.rhcloud.com/unsafe/300x300/http://i.imgur.com/n7XEqp2.jpg",
        "urlWithPrefix": "https://www.ptt.cc/bbs/Beauty/M.1448718189.A.5CE.html",
        "imageUrlRandom": "http://i.imgur.com/n7XEqp2.jpg",
        "_links": {
          "self": {
            "href": "http://beauties-lab317.rhcloud.com/articles/20"
          },
          "articleImages": {
            "href": "http://beauties-lab317.rhcloud.com/articles/20/articleImages"
          }
        }
      },
      {
        "url": "/bbs/Beauty/M.1448211405.A.229.html",
        "title": "[正妹] FB朋友串連的女孩Round Fifty seven",
        "pushNum": 19,
        "author": "sy267180",
        "createdTime": "2015-11-29T09:19:27.600+0000",
        "articleImage": [
          {
            "url": "//i.imgur.com/c9qV0Ww.jpg"
          },
          {
            "url": "//i.imgur.com/yDvKy3nl.jpg"
          },
          {
            "url": "//i.imgur.com/s1lHAbb.jpg"
          },
          {
            "url": "//i.imgur.com/KjBCyvt.jpg"
          },
          {
            "url": "//i.imgur.com/NItypT9h.jpg"
          },
          {
            "url": "//i.imgur.com/UlzjQc2.jpg"
          },
          {
            "url": "//i.imgur.com/UzDIYcp.jpg"
          },
          {
            "url": "//i.imgur.com/r8A5lAd.jpg"
          },
          {
            "url": "//i.imgur.com/w6Hkgi8l.jpg"
          },
          {
            "url": "//i.imgur.com/pmF8aiG.jpg"
          },
          {
            "url": "//i.imgur.com/9eoXQA0h.jpg"
          },
          {
            "url": "//i.imgur.com/w1srEAt.jpg"
          },
          {
            "url": "//i.imgur.com/HGjB01tl.jpg"
          },
          {
            "url": "//i.imgur.com/KzBTIyn.jpg"
          },
          {
            "url": "//i.imgur.com/uocCEIf.jpg"
          },
          {
            "url": "//i.imgur.com/aZ7uyrzl.jpg"
          },
          {
            "url": "//i.imgur.com/rf2C6mu.jpg"
          },
          {
            "url": "//i.imgur.com/dqZDXQI.jpg"
          },
          {
            "url": "//i.imgur.com/eGd8zdp.jpg"
          }
        ],
        "randomThumbnailUrl": "http://thumborservice-lab317.rhcloud.com/unsafe/300x300/http://i.imgur.com/eGd8zdp.jpg",
        "urlWithPrefix": "https://www.ptt.cc/bbs/Beauty/M.1448211405.A.229.html",
        "imageUrlRandom": "http://i.imgur.com/eGd8zdp.jpg",
        "_links": {
          "self": {
            "href": "http://beauties-lab317.rhcloud.com/articles/100"
          },
          "articleImages": {
            "href": "http://beauties-lab317.rhcloud.com/articles/100/articleImages"
          }
        }
      },
      {
        "url": "/bbs/Beauty/M.1448763055.A.130.html",
        "title": "[神人] 蘋果日報今天資訊展正妹",
        "pushNum": 10,
        "author": "goodsmallman",
        "createdTime": "2015-12-03T06:51:10.943+0000",
        "articleImage": [
          {
            "url": "//i.imgur.com/G21jfGe.jpg"
          }
        ],
        "randomThumbnailUrl": "http://thumborservice-lab317.rhcloud.com/unsafe/300x300/http://i.imgur.com/G21jfGe.jpg",
        "urlWithPrefix": "https://www.ptt.cc/bbs/Beauty/M.1448763055.A.130.html",
        "imageUrlRandom": "http://i.imgur.com/G21jfGe.jpg",
        "_links": {
          "self": {
            "href": "http://beauties-lab317.rhcloud.com/articles/113"
          },
          "articleImages": {
            "href": "http://beauties-lab317.rhcloud.com/articles/113/articleImages"
          }
        }
      }
    ]
  },
  "page": {
    "size": 20,
    "totalElements": 321,
    "totalPages": 17,
    "number": 2
  }
}