{
  "_links": {
    "next": {
      "href": "http://beauties-lab317.rhcloud.com/articles?page=4&size=20"
    },
    "prev": {
      "href": "http://beauties-lab317.rhcloud.com/articles?page=2&size=20"
    },
    "self": {
      "href": "http://beauties-lab317.rhcloud.com/articles?page=3&size=20{&sort}",
      "templated": true
    },
    "search": {
      "href": "http://beauties-lab317.rhcloud.com/articles/search"
    }
  },
  "_embedded": {
    "articles": [
      {
        "url": "/bbs/Beauty/M.1448282882.A.7CB.html",
        "title": "[挑戰] 自己",
        "pushNum": 3,
        "author": "liveflysky",
        "createdTime": "2015-11-30T06:06:47.188+0000",
        "articleImage": [
          {
            "url": "//i.imgur.com/hgH8tay.jpg"
          },
          {
            "url": "//i.imgur.com/O5PbR0y.jpg"
          },
          {
            "url": "//i.imgur.com/LCyoz72.jpg"
          },
          {
            "url": "//i.imgur.com/VmiTvWe.jpg"
          },
          {
            "url": "//i.imgur.com/9pYRB5s.jpg"
          }
        ],
        "randomThumbnailUrl": "http://thumborservice-lab317.rhcloud.com/unsafe/300x300/http://i.imgur.com/9pYRB5s.jpg",
        "urlWithPrefix": "https://www.ptt.cc/bbs/Beauty/M.1448282882.A.7CB.html",
        "imageUrlRandom": "http://i.imgur.com/9pYRB5s.jpg",
        "_links": {
          "self": {
            "href": "http://beauties-lab317.rhcloud.com/articles/90"
          },
          "articleImages": {
            "href": "http://beauties-lab317.rhcloud.com/articles/90/articleImages"
          }
        }
      },
      {
        "url": "/bbs/Beauty/M.1448198621.A.0D3.html",
        "title": "[正妹] Daniela Lopez Osorio 哥倫比亞模特兒 175cm",
        "pushNum": 27,
        "author": "Aotearoa",
        "createdTime": "2015-11-29T09:19:27.600+0000",
        "articleImage": [
          {
            "url": "//i.imgur.com/QT637kP.jpg"
          },
          {
            "url": "//i.imgur.com/w3n73Du.jpg"
          },
          {
            "url": "//i.imgur.com/3mREgdJ.jpg"
          },
          {
            "url": "//i.imgur.com/BHQ47yp.jpg"
          },
          {
            "url": "//i.imgur.com/gZF439Q.jpg"
          },
          {
            "url": "//i.imgur.com/ggkmfvY.jpg"
          },
          {
            "url": "//i.imgur.com/h1XbJcS.jpg"
          },
          {
            "url": "//i.imgur.com/PnTV8yp.jpg"
          },
          {
            "url": "//i.imgur.com/h7hvasb.jpg"
          },
          {
            "url": "//i.imgur.com/fXE7rMq.jpg"
          },
          {
            "url": "//i.imgur.com/srhKs97.jpg"
          },
          {
            "url": "//i.imgur.com/uCiY02c.jpg"
          },
          {
            "url": "//i.imgur.com/sUzloyt.jpg"
          },
          {
            "url": "//i.imgur.com/Wl5RFwF.jpg"
          },
          {
            "url": "//i.imgur.com/3VdD2Bk.jpg"
          },
          {
            "url": "//i.imgur.com/sy4oRuQ.jpg"
          }
        ],
        "randomThumbnailUrl": "http://thumborservice-lab317.rhcloud.com/unsafe/300x300/http://i.imgur.com/sy4oRuQ.jpg",
        "urlWithPrefix": "https://www.ptt.cc/bbs/Beauty/M.1448198621.A.0D3.html",
        "imageUrlRandom": "http://i.imgur.com/sy4oRuQ.jpg",
        "_links": {
          "self": {
            "href": "http://beauties-lab317.rhcloud.com/articles/111"
          },
          "articleImages": {
            "href": "http://beauties-lab317.rhcloud.com/articles/111/articleImages"
          }
        }
      },
      {
        "url": "/bbs/Beauty/M.1448291640.A.8EB.html",
        "title": "[正妹] SWEET",
        "pushNum": 27,
        "author": "qscxz",
        "createdTime": "2015-11-30T06:06:47.189+0000",
        "articleImage": [
          {
            "url": "//i.imgur.com/5fI7m8Q.jpg"
          },
          {
            "url": "//i.imgur.com/qUqKkGE.jpg"
          },
          {
            "url": "//i.imgur.com/JdPwjs4.jpg"
          },
          {
            "url": "//i.imgur.com/DUxCPm6.jpg"
          }
        ],
        "randomThumbnailUrl": "http://thumborservice-lab317.rhcloud.com/unsafe/300x300/http://i.imgur.com/DUxCPm6.jpg",
        "urlWithPrefix": "https://www.ptt.cc/bbs/Beauty/M.1448291640.A.8EB.html",
        "imageUrlRandom": "http://i.imgur.com/DUxCPm6.jpg",
        "_links": {
          "self": {
            "href": "http://beauties-lab317.rhcloud.com/articles/71"
          },
          "articleImages": {
            "href": "http://beauties-lab317.rhcloud.com/articles/71/articleImages"
          }
        }
      },
      {
        "url": "/bbs/Beauty/M.1448296721.A.C74.html",
        "title": "Re: [神人] 珠寶展MODEL~",
        "pushNum": 9,
        "author": "everclean",
        "createdTime": "2015-11-30T06:06:47.189+0000",
        "articleImage": [
          {
            "url": "//i.imgur.com/e1roCcb.jpg"
          },
          {
            "url": "//i.imgur.com/jfp3imo.jpg"
          },
          {
            "url": "//i.imgur.com/f5oDLo7.jpg"
          },
          {
            "url": "//i.imgur.com/N5GsiWg.jpg"
          },
          {
            "url": "//i.imgur.com/iEPqmjh.jpg"
          },
          {
            "url": "//i.imgur.com/yZhyYov.jpg"
          },
          {
            "url": "//i.imgur.com/SsRJMR3.jpg"
          },
          {
            "url": "//i.imgur.com/qzNJjT8.jpg"
          },
          {
            "url": "//i.imgur.com/bNmt2Zm.jpg"
          },
          {
            "url": "//i.imgur.com/cEnADWI.jpg"
          },
          {
            "url": "//i.imgur.com/RX6tTG7.jpg"
          },
          {
            "url": "//i.imgur.com/trAah7b.jpg"
          }
        ],
        "randomThumbnailUrl": "http://thumborservice-lab317.rhcloud.com/unsafe/300x300/http://i.imgur.com/trAah7b.jpg",
        "urlWithPrefix": "https://www.ptt.cc/bbs/Beauty/M.1448296721.A.C74.html",
        "imageUrlRandom": "http://i.imgur.com/trAah7b.jpg",
        "_links": {
          "self": {
            "href": "http://beauties-lab317.rhcloud.com/articles/72"
          },
          "articleImages": {
            "href": "http://beauties-lab317.rhcloud.com/articles/72/articleImages"
          }
        }
      },
      {
        "url": "/bbs/Beauty/M.1448340721.A.69C.html",
        "title": "[公告] Sibelius26 水桶",
        "pushNum": 15,
        "author": "ffwind",
        "createdTime": "2015-11-30T06:06:47.189+0000",
        "articleImage": [],
        "randomThumbnailUrl": "",
        "urlWithPrefix": "https://www.ptt.cc/bbs/Beauty/M.1448340721.A.69C.html",
        "imageUrlRandom": "",
        "_links": {
          "self": {
            "href": "http://beauties-lab317.rhcloud.com/articles/73"
          },
          "articleImages": {
            "href": "http://beauties-lab317.rhcloud.com/articles/73/articleImages"
          }
        }
      },
      {
        "url": "/bbs/Beauty/M.1448370372.A.1B1.html",
        "title": "[正妹] 奧仲麻琴",
        "pushNum": 25,
        "author": "makilaifan",
        "createdTime": "2015-11-30T06:06:47.192+0000",
        "articleImage": [
          {
            "url": "//i.imgur.com/xITWp4f.jpg"
          },
          {
            "url": "//i.imgur.com/0Q0yXEF.jpg"
          },
          {
            "url": "//i.imgur.com/vjgzQSZ.jpg"
          },
          {
            "url": "//i.imgur.com/WlpSDua.jpg"
          },
          {
            "url": "//i.imgur.com/qsXMODb.jpg"
          },
          {
            "url": "//i.imgur.com/SssAmhC.jpg"
          },
          {
            "url": "//i.imgur.com/G9rX7nm.jpg"
          },
          {
            "url": "//i.imgur.com/BeuxRck.jpg"
          },
          {
            "url": "//i.imgur.com/n0iVAk6.jpg"
          },
          {
            "url": "//i.imgur.com/knvkbgo.jpg"
          },
          {
            "url": "//i.imgur.com/SW60nR3.jpg"
          },
          {
            "url": "//i.imgur.com/p51h2a8.jpg"
          },
          {
            "url": "//i.imgur.com/cY5ZwiV.jpg"
          },
          {
            "url": "//i.imgur.com/VveHCEA.jpg"
          },
          {
            "url": "//i.imgur.com/adxRdiS.jpg"
          },
          {
            "url": "//i.imgur.com/Lzk4vYS.jpg"
          },
          {
            "url": "//i.imgur.com/UJUuxr0.jpg"
          },
          {
            "url": "//i.imgur.com/WI4MHNn.jpg"
          },
          {
            "url": "//i.imgur.com/sSjQfXq.jpg"
          },
          {
            "url": "//i.imgur.com/f4UQhrJ.jpg"
          },
          {
            "url": "//i.imgur.com/S7pWAq1.jpg"
          },
          {
            "url": "//i.imgur.com/WYvdqGj.jpg"
          },
          {
            "url": "//i.imgur.com/2egDmYd.jpg"
          },
          {
            "url": "//i.imgur.com/hVr874C.jpg"
          },
          {
            "url": "//i.imgur.com/fmt1esz.jpg"
          },
          {
            "url": "//i.imgur.com/U0TthTf.jpg"
          }
        ],
        "randomThumbnailUrl": "http://thumborservice-lab317.rhcloud.com/unsafe/300x300/http://i.imgur.com/U0TthTf.jpg",
        "urlWithPrefix": "https://www.ptt.cc/bbs/Beauty/M.1448370372.A.1B1.html",
        "imageUrlRandom": "http://i.imgur.com/U0TthTf.jpg",
        "_links": {
          "self": {
            "href": "http://beauties-lab317.rhcloud.com/articles/82"
          },
          "articleImages": {
            "href": "http://beauties-lab317.rhcloud.com/articles/82/articleImages"
          }
        }
      },
      {
        "url": "/bbs/Beauty/M.1448377772.A.5DF.html",
        "title": "[正妹] Stephanie Claire Smith 澳洲模特兒176cm",
        "pushNum": 12,
        "author": "Aotearoa",
        "createdTime": "2015-11-30T06:06:47.192+0000",
        "articleImage": [
          {
            "url": "//i.imgur.com/Miaky8u.jpg"
          },
          {
            "url": "//i.imgur.com/sDdEk1p.jpg"
          },
          {
            "url": "//i.imgur.com/060Oywa.jpg"
          },
          {
            "url": "//i.imgur.com/xYulov3.jpg"
          },
          {
            "url": "//i.imgur.com/0yirVgd.jpg"
          },
          {
            "url": "//i.imgur.com/oNjYqT2.jpg"
          },
          {
            "url": "//i.imgur.com/rRk7EZK.jpg"
          },
          {
            "url": "//i.imgur.com/4pA7rqx.jpg"
          },
          {
            "url": "//i.imgur.com/Dso42Gi.jpg"
          },
          {
            "url": "//i.imgur.com/y0aI253.jpg"
          },
          {
            "url": "//i.imgur.com/QrBLHrZ.jpg"
          },
          {
            "url": "//i.imgur.com/gFQqBiZ.jpg"
          },
          {
            "url": "//i.imgur.com/4vgg1Oj.jpg"
          },
          {
            "url": "//i.imgur.com/qk76nXu.jpg"
          },
          {
            "url": "//i.imgur.com/XMb7Mrg.jpg"
          },
          {
            "url": "//i.imgur.com/CRI3rMO.jpg"
          },
          {
            "url": "//i.imgur.com/KrojYDq.jpg"
          },
          {
            "url": "//i.imgur.com/j9bMnhp.jpg"
          },
          {
            "url": "//i.imgur.com/Wy9Miwi.jpg"
          },
          {
            "url": "//i.imgur.com/sOtkF6I.jpg"
          },
          {
            "url": "//i.imgur.com/VUgKo1Z.jpg"
          },
          {
            "url": "//i.imgur.com/u9PW3cc.jpg"
          },
          {
            "url": "//i.imgur.com/TuvhOEc.jpg"
          },
          {
            "url": "//i.imgur.com/dxM0MQd.jpg"
          },
          {
            "url": "//i.imgur.com/JXxCZMK.jpg"
          },
          {
            "url": "//i.imgur.com/JWoTgH0.jpg"
          },
          {
            "url": "//i.imgur.com/2uGCHA0.jpg"
          },
          {
            "url": "//i.imgur.com/sUUpdIo.jpg"
          },
          {
            "url": "//i.imgur.com/anVfQP2.jpg"
          },
          {
            "url": "//i.imgur.com/I21kJSK.jpg"
          }
        ],
        "randomThumbnailUrl": "http://thumborservice-lab317.rhcloud.com/unsafe/300x300/http://i.imgur.com/I21kJSK.jpg",
        "urlWithPrefix": "https://www.ptt.cc/bbs/Beauty/M.1448377772.A.5DF.html",
        "imageUrlRandom": "http://i.imgur.com/I21kJSK.jpg",
        "_links": {
          "self": {
            "href": "http://beauties-lab317.rhcloud.com/articles/83"
          },
          "articleImages": {
            "href": "http://beauties-lab317.rhcloud.com/articles/83/articleImages"
          }
        }
      },
      {
        "url": "/bbs/Beauty/M.1448414520.A.0D7.html",
        "title": "[神人] 早晨公車正妹",
        "pushNum": 17,
        "author": "johnchu33005",
        "createdTime": "2015-12-01T00:26:58.095+0000",
        "articleImage": [
          {
            "url": "//i.imgur.com/JBg1t2f.jpg"
          }
        ],
        "randomThumbnailUrl": "http://thumborservice-lab317.rhcloud.com/unsafe/300x300/http://i.imgur.com/JBg1t2f.jpg",
        "urlWithPrefix": "https://www.ptt.cc/bbs/Beauty/M.1448414520.A.0D7.html",
        "imageUrlRandom": "http://i.imgur.com/JBg1t2f.jpg",
        "_links": {
          "self": {
            "href": "http://beauties-lab317.rhcloud.com/articles/62"
          },
          "articleImages": {
            "href": "http://beauties-lab317.rhcloud.com/articles/62/articleImages"
          }
        }
      },
      {
        "url": "/bbs/Beauty/M.1448427455.A.D99.html",
        "title": "[神人] 播PM2.5的美麗播報員",
        "pushNum": 0,
        "author": "ForeverFun",
        "createdTime": "2015-12-01T00:26:58.095+0000",
        "articleImage": [
          {
            "url": "//i.imgur.com/3UbYwMG.jpg"
          }
        ],
        "randomThumbnailUrl": "http://thumborservice-lab317.rhcloud.com/unsafe/300x300/http://i.imgur.com/3UbYwMG.jpg",
        "urlWithPrefix": "https://www.ptt.cc/bbs/Beauty/M.1448427455.A.D99.html",
        "imageUrlRandom": "http://i.imgur.com/3UbYwMG.jpg",
        "_links": {
          "self": {
            "href": "http://beauties-lab317.rhcloud.com/articles/63"
          },
          "articleImages": {
            "href": "http://beauties-lab317.rhcloud.com/articles/63/articleImages"
          }
        }
      },
      {
        "url": "/bbs/Beauty/M.1448428131.A.535.html",
        "title": "[正妹] Alejandra Guilmant 墨西哥模特兒 176cm",
        "pushNum": 35,
        "author": "Aotearoa",
        "createdTime": "2015-12-01T00:26:58.095+0000",
        "articleImage": [
          {
            "url": "//i.imgur.com/qVRGmLV.jpg"
          },
          {
            "url": "//i.imgur.com/aHmFbRj.jpg"
          },
          {
            "url": "//i.imgur.com/EaUujLG.jpg"
          },
          {
            "url": "//i.imgur.com/7K750pX.jpg"
          },
          {
            "url": "//i.imgur.com/E4nvr0Q.jpg"
          },
          {
            "url": "//i.imgur.com/uHWNlkt.jpg"
          },
          {
            "url": "//i.imgur.com/o0W5x5l.jpg"
          },
          {
            "url": "//i.imgur.com/wPdiP3i.jpg"
          },
          {
            "url": "//i.imgur.com/4lW0nKL.jpg"
          },
          {
            "url": "//i.imgur.com/TVgz1GK.jpg"
          },
          {
            "url": "//i.imgur.com/7VAdUfm.jpg"
          },
          {
            "url": "//i.imgur.com/PltK3Kf.jpg"
          },
          {
            "url": "//i.imgur.com/7cjTG4L.jpg"
          },
          {
            "url": "//i.imgur.com/rEcosOl.jpg"
          },
          {
            "url": "//i.imgur.com/FosxaTu.jpg"
          },
          {
            "url": "//i.imgur.com/osgwrSP.jpg"
          },
          {
            "url": "//i.imgur.com/VdM8l3B.jpg"
          },
          {
            "url": "//i.imgur.com/8047qJ7.jpg"
          },
          {
            "url": "//i.imgur.com/T6rv5oX.jpg"
          },
          {
            "url": "//i.imgur.com/aYu4b2s.jpg"
          },
          {
            "url": "//i.imgur.com/UCx8sVd.jpg"
          },
          {
            "url": "//i.imgur.com/v42HOLp.jpg"
          },
          {
            "url": "//i.imgur.com/iWU1gLM.jpg"
          },
          {
            "url": "//i.imgur.com/Ii0NqzP.jpg"
          },
          {
            "url": "//i.imgur.com/kqpisqC.jpg"
          }
        ],
        "randomThumbnailUrl": "http://thumborservice-lab317.rhcloud.com/unsafe/300x300/http://i.imgur.com/kqpisqC.jpg",
        "urlWithPrefix": "https://www.ptt.cc/bbs/Beauty/M.1448428131.A.535.html",
        "imageUrlRandom": "http://i.imgur.com/kqpisqC.jpg",
        "_links": {
          "self": {
            "href": "http://beauties-lab317.rhcloud.com/articles/64"
          },
          "articleImages": {
            "href": "http://beauties-lab317.rhcloud.com/articles/64/articleImages"
          }
        }
      },
      {
        "url": "/bbs/Beauty/M.1448432663.A.45C.html",
        "title": "[正妹] 奶特",
        "pushNum": 0,
        "author": "lazack",
        "createdTime": "2015-12-01T00:26:58.095+0000",
        "articleImage": [
          {
            "url": "//i.imgur.com/hzrHHEK.jpg"
          },
          {
            "url": "//i.imgur.com/8izeyLK.jpg"
          },
          {
            "url": "//i.imgur.com/4m9ICbs.jpg"
          },
          {
            "url": "//i.imgur.com/H13AL5P.jpg"
          },
          {
            "url": "//i.imgur.com/ewMjv4o.jpg"
          },
          {
            "url": "//i.imgur.com/mC6JfDG.jpg"
          },
          {
            "url": "//i.imgur.com/kgJsL4P.jpg"
          },
          {
            "url": "//i.imgur.com/bMBtqhW.jpg"
          },
          {
            "url": "//i.imgur.com/ujhDdpy.jpg"
          },
          {
            "url": "//i.imgur.com/3KEFGKQ.jpg"
          },
          {
            "url": "//i.imgur.com/vJtR9Cr.jpg"
          },
          {
            "url": "//i.imgur.com/XHH8Ish.jpg"
          },
          {
            "url": "//i.imgur.com/7zCQmgV.jpg"
          },
          {
            "url": "//i.imgur.com/X8ND58s.jpg"
          },
          {
            "url": "//i.imgur.com/ajVmoUk.jpg"
          }
        ],
        "randomThumbnailUrl": "http://thumborservice-lab317.rhcloud.com/unsafe/300x300/http://i.imgur.com/ajVmoUk.jpg",
        "urlWithPrefix": "https://www.ptt.cc/bbs/Beauty/M.1448432663.A.45C.html",
        "imageUrlRandom": "http://i.imgur.com/ajVmoUk.jpg",
        "_links": {
          "self": {
            "href": "http://beauties-lab317.rhcloud.com/articles/65"
          },
          "articleImages": {
            "href": "http://beauties-lab317.rhcloud.com/articles/65/articleImages"
          }
        }
      },
      {
        "url": "/bbs/Beauty/M.1448448388.A.B80.html",
        "title": "[廣告] 圓臉 甜美女孩",
        "pushNum": 0,
        "author": "eddieyeh",
        "createdTime": "2015-12-01T00:26:58.095+0000",
        "articleImage": [
          {
            "url": "//i.imgur.com/NYthkdq.jpg"
          },
          {
            "url": "//i.imgur.com/RViIjBF.jpg"
          },
          {
            "url": "//i.imgur.com/CEMZbns.jpg"
          },
          {
            "url": "//i.imgur.com/ULtMCcI.jpg"
          },
          {
            "url": "//i.imgur.com/ILVPQ5h.jpg"
          }
        ],
        "randomThumbnailUrl": "http://thumborservice-lab317.rhcloud.com/unsafe/300x300/http://i.imgur.com/ILVPQ5h.jpg",
        "urlWithPrefix": "https://www.ptt.cc/bbs/Beauty/M.1448448388.A.B80.html",
        "imageUrlRandom": "http://i.imgur.com/ILVPQ5h.jpg",
        "_links": {
          "self": {
            "href": "http://beauties-lab317.rhcloud.com/articles/69"
          },
          "articleImages": {
            "href": "http://beauties-lab317.rhcloud.com/articles/69/articleImages"
          }
        }
      },
      {
        "url": "/bbs/Beauty/M.1448453397.A.2BF.html",
        "title": "[挑戰] 50推可以嗎",
        "pushNum": 67,
        "author": "gaiaesque",
        "createdTime": "2015-12-01T00:26:58.095+0000",
        "articleImage": [
          {
            "url": "//i.imgur.com/oNZQ6Vr.jpg"
          },
          {
            "url": "//i.imgur.com/pKyv8S5.jpg"
          },
          {
            "url": "//i.imgur.com/V9nQaJz.png"
          },
          {
            "url": "//i.imgur.com/FckN1hx.png"
          },
          {
            "url": "//i.imgur.com/82nkV6k.jpg"
          },
          {
            "url": "//i.imgur.com/09HzMrz.png"
          },
          {
            "url": "//i.imgur.com/RK6Cf5Y.png"
          },
          {
            "url": "//i.imgur.com/6gqUF6w.jpg"
          },
          {
            "url": "//i.imgur.com/PxijVMI.jpg"
          },
          {
            "url": "//i.imgur.com/VdYrbg8.jpg"
          },
          {
            "url": "//i.imgur.com/fcAEXXf.png"
          },
          {
            "url": "//i.imgur.com/9J4YlFO.jpg"
          },
          {
            "url": "//i.imgur.com/HFI0ogo.png"
          },
          {
            "url": "//i.imgur.com/hCCaQeM.png"
          },
          {
            "url": "//i.imgur.com/OVeJy3c.jpg"
          },
          {
            "url": "//i.imgur.com/Houqd6E.jpg"
          },
          {
            "url": "//i.imgur.com/PvRlXKs.jpg"
          },
          {
            "url": "//i.imgur.com/8yhTavn.png"
          },
          {
            "url": "//i.imgur.com/JKpay8j.png"
          }
        ],
        "randomThumbnailUrl": "http://thumborservice-lab317.rhcloud.com/unsafe/300x300/http://i.imgur.com/JKpay8j.png",
        "urlWithPrefix": "https://www.ptt.cc/bbs/Beauty/M.1448453397.A.2BF.html",
        "imageUrlRandom": "http://i.imgur.com/JKpay8j.png",
        "_links": {
          "self": {
            "href": "http://beauties-lab317.rhcloud.com/articles/70"
          },
          "articleImages": {
            "href": "http://beauties-lab317.rhcloud.com/articles/70/articleImages"
          }
        }
      },
      {
        "url": "/bbs/Beauty/M.1448778375.A.7EC.html",
        "title": "[神人] 建國高架上的帥哥警察",
        "pushNum": 0,
        "author": "banbooo",
        "createdTime": "2015-12-03T06:51:10.943+0000",
        "articleImage": [],
        "randomThumbnailUrl": "",
        "urlWithPrefix": "https://www.ptt.cc/bbs/Beauty/M.1448778375.A.7EC.html",
        "imageUrlRandom": "",
        "_links": {
          "self": {
            "href": "http://beauties-lab317.rhcloud.com/articles/114"
          },
          "articleImages": {
            "href": "http://beauties-lab317.rhcloud.com/articles/114/articleImages"
          }
        }
      },
      {
        "url": "/bbs/Beauty/M.1448779962.A.144.html",
        "title": "[正妹] 華航看板空姐",
        "pushNum": 33,
        "author": "guitarcho",
        "createdTime": "2015-12-03T06:51:10.943+0000",
        "articleImage": [
          {
            "url": "//i.imgur.com/Y9Cn4BO.jpg"
          },
          {
            "url": "//i.imgur.com/G7g1ANx.jpg"
          },
          {
            "url": "//i.imgur.com/KbWtYUZ.jpg"
          }
        ],
        "randomThumbnailUrl": "http://thumborservice-lab317.rhcloud.com/unsafe/300x300/http://i.imgur.com/KbWtYUZ.jpg",
        "urlWithPrefix": "https://www.ptt.cc/bbs/Beauty/M.1448779962.A.144.html",
        "imageUrlRandom": "http://i.imgur.com/KbWtYUZ.jpg",
        "_links": {
          "self": {
            "href": "http://beauties-lab317.rhcloud.com/articles/115"
          },
          "articleImages": {
            "href": "http://beauties-lab317.rhcloud.com/articles/115/articleImages"
          }
        }
      },
      {
        "url": "/bbs/Beauty/M.1448786685.A.758.html",
        "title": "[神人] 2013跨年正妹",
        "pushNum": 10,
        "author": "Radiology",
        "createdTime": "2015-12-03T06:51:10.943+0000",
        "articleImage": [
          {
            "url": "//i.imgur.com/q1uotnP.jpg"
          }
        ],
        "randomThumbnailUrl": "http://thumborservice-lab317.rhcloud.com/unsafe/300x300/http://i.imgur.com/q1uotnP.jpg",
        "urlWithPrefix": "https://www.ptt.cc/bbs/Beauty/M.1448786685.A.758.html",
        "imageUrlRandom": "http://i.imgur.com/q1uotnP.jpg",
        "_links": {
          "self": {
            "href": "http://beauties-lab317.rhcloud.com/articles/116"
          },
          "articleImages": {
            "href": "http://beauties-lab317.rhcloud.com/articles/116/articleImages"
          }
        }
      },
      {
        "url": "/bbs/Beauty/M.1448267988.A.E82.html",
        "title": "[正妹] 伊藤 えみ いとう えみ",
        "pushNum": 14,
        "author": "dekirin",
        "createdTime": "2015-11-30T06:06:47.188+0000",
        "articleImage": [
          {
            "url": "//i.imgur.com/Iao5anL.jpg"
          },
          {
            "url": "//i.imgur.com/OsJYxcq.jpg"
          },
          {
            "url": "//i.imgur.com/r3JCeuj.jpg"
          },
          {
            "url": "//i.imgur.com/5FLO7Ec.jpg"
          },
          {
            "url": "//i.imgur.com/Ust7cBQ.jpg"
          },
          {
            "url": "//i.imgur.com/QhoMHf9.jpg"
          },
          {
            "url": "//i.imgur.com/7PgYgkx.jpg"
          },
          {
            "url": "//i.imgur.com/VDmvepa.jpg"
          },
          {
            "url": "//i.imgur.com/AnEM9v6.jpg"
          },
          {
            "url": "//i.imgur.com/p4z7fp7.jpg"
          },
          {
            "url": "//i.imgur.com/gcTP98x.jpg"
          },
          {
            "url": "//i.imgur.com/H10eAwj.jpg"
          },
          {
            "url": "//i.imgur.com/ClJ2wlK.jpg"
          },
          {
            "url": "//i.imgur.com/VQg2f9B.jpg"
          },
          {
            "url": "//i.imgur.com/zIAZSqY.jpg"
          },
          {
            "url": "//i.imgur.com/DUrSQul.jpg"
          },
          {
            "url": "//i.imgur.com/Eqx8r6R.jpg"
          },
          {
            "url": "//i.imgur.com/beTBatt.jpg"
          },
          {
            "url": "//i.imgur.com/FI1ZOtT.jpg"
          },
          {
            "url": "//i.imgur.com/btfZrD6.jpg"
          },
          {
            "url": "//i.imgur.com/Qa1ZOuD.jpg"
          },
          {
            "url": "//i.imgur.com/uxDiVJr.jpg"
          },
          {
            "url": "//i.imgur.com/l5C9ltV.jpg"
          },
          {
            "url": "//i.imgur.com/zC6qtMH.jpg"
          },
          {
            "url": "//i.imgur.com/1yGA0Zq.jpg"
          },
          {
            "url": "//i.imgur.com/84fma8x.jpg"
          },
          {
            "url": "//i.imgur.com/3j9R3Zc.jpg"
          },
          {
            "url": "//i.imgur.com/tdJiUu8.jpg"
          },
          {
            "url": "//i.imgur.com/GyMZf09.jpg"
          }
        ],
        "randomThumbnailUrl": "http://thumborservice-lab317.rhcloud.com/unsafe/300x300/http://i.imgur.com/GyMZf09.jpg",
        "urlWithPrefix": "https://www.ptt.cc/bbs/Beauty/M.1448267988.A.E82.html",
        "imageUrlRandom": "http://i.imgur.com/GyMZf09.jpg",
        "_links": {
          "self": {
            "href": "http://beauties-lab317.rhcloud.com/articles/87"
          },
          "articleImages": {
            "href": "http://beauties-lab317.rhcloud.com/articles/87/articleImages"
          }
        }
      },
      {
        "url": "/bbs/Beauty/M.1448282988.A.101.html",
        "title": "[神人] 好像是model?",
        "pushNum": 6,
        "author": "cdcd3831",
        "createdTime": "2015-11-30T06:06:47.188+0000",
        "articleImage": [
          {
            "url": "//i.imgur.com/76ikDBa.jpg"
          },
          {
            "url": "//i.imgur.com/O9xWByd.jpg"
          },
          {
            "url": "//i.imgur.com/xMpWrxI.jpg"
          }
        ],
        "randomThumbnailUrl": "http://thumborservice-lab317.rhcloud.com/unsafe/300x300/http://i.imgur.com/xMpWrxI.jpg",
        "urlWithPrefix": "https://www.ptt.cc/bbs/Beauty/M.1448282988.A.101.html",
        "imageUrlRandom": "http://i.imgur.com/xMpWrxI.jpg",
        "_links": {
          "self": {
            "href": "http://beauties-lab317.rhcloud.com/articles/91"
          },
          "articleImages": {
            "href": "http://beauties-lab317.rhcloud.com/articles/91/articleImages"
          }
        }
      },
      {
        "url": "/bbs/Beauty/M.1448285281.A.1BB.html",
        "title": "[新聞] 夏洛特煩惱 秋雅 - 王智",
        "pushNum": 4,
        "author": "sagax",
        "createdTime": "2015-11-30T06:06:47.188+0000",
        "articleImage": [
          {
            "url": "//i.imgur.com/FqqUgQe.jpg"
          }
        ],
        "randomThumbnailUrl": "http://thumborservice-lab317.rhcloud.com/unsafe/300x300/http://i.imgur.com/FqqUgQe.jpg",
        "urlWithPrefix": "https://www.ptt.cc/bbs/Beauty/M.1448285281.A.1BB.html",
        "imageUrlRandom": "http://i.imgur.com/FqqUgQe.jpg",
        "_links": {
          "self": {
            "href": "http://beauties-lab317.rhcloud.com/articles/92"
          },
          "articleImages": {
            "href": "http://beauties-lab317.rhcloud.com/articles/92/articleImages"
          }
        }
      },
      {
        "url": "/bbs/Beauty/M.1448167450.A.CE0.html",
        "title": "[神人] 臺中國際馬拉松3K正妹",
        "pushNum": 47,
        "author": "shengs3",
        "createdTime": "2015-11-29T09:19:27.600+0000",
        "articleImage": [
          {
            "url": "//i.imgur.com/90mCuMm.jpg"
          }
        ],
        "randomThumbnailUrl": "http://thumborservice-lab317.rhcloud.com/unsafe/300x300/http://i.imgur.com/90mCuMm.jpg",
        "urlWithPrefix": "https://www.ptt.cc/bbs/Beauty/M.1448167450.A.CE0.html",
        "imageUrlRandom": "http://i.imgur.com/90mCuMm.jpg",
        "_links": {
          "self": {
            "href": "http://beauties-lab317.rhcloud.com/articles/106"
          },
          "articleImages": {
            "href": "http://beauties-lab317.rhcloud.com/articles/106/articleImages"
          }
        }
      }
    ]
  },
  "page": {
    "size": 20,
    "totalElements": 321,
    "totalPages": 17,
    "number": 3
  }
}