{
  "_links": {
    "next": {
      "href": "http://beauties-lab317.rhcloud.com/articles?page=2&size=20"
    },
    "prev": {
      "href": "http://beauties-lab317.rhcloud.com/articles?page=0&size=20"
    },
    "self": {
      "href": "http://beauties-lab317.rhcloud.com/articles?page=1&size=20{&sort}",
      "templated": true
    },
    "search": {
      "href": "http://beauties-lab317.rhcloud.com/articles/search"
    }
  },
  "_embedded": {
    "articles": [
      {
        "url": "/bbs/Beauty/M.1448522790.A.7D7.html",
        "title": "[廣告] 血壓都要飆高了!",
        "pushNum": 8,
        "author": "Ycool",
        "createdTime": "2015-12-01T14:29:17.264+0000",
        "articleImage": [
          {
            "url": "//i.imgur.com/JvXUrOB.jpg"
          }
        ],
        "randomThumbnailUrl": "http://thumborservice-lab317.rhcloud.com/unsafe/300x300/http://i.imgur.com/JvXUrOB.jpg",
        "urlWithPrefix": "https://www.ptt.cc/bbs/Beauty/M.1448522790.A.7D7.html",
        "imageUrlRandom": "http://i.imgur.com/JvXUrOB.jpg",
        "_links": {
          "self": {
            "href": "http://beauties-lab317.rhcloud.com/articles/35"
          },
          "articleImages": {
            "href": "http://beauties-lab317.rhcloud.com/articles/35/articleImages"
          }
        }
      },
      {
        "url": "/bbs/Beauty/M.1448527110.A.45F.html",
        "title": "[神人] 幫神這位正妹",
        "pushNum": 0,
        "author": "newdog",
        "createdTime": "2015-12-01T14:29:17.264+0000",
        "articleImage": [
          {
            "url": "http://photo.l99.com/source/01/1390630276552_zt489h.jpg"
          }
        ],
        "randomThumbnailUrl": "http://thumborservice-lab317.rhcloud.com/unsafe/300x300/http://photo.l99.com/source/01/1390630276552_zt489h.jpg",
        "urlWithPrefix": "https://www.ptt.cc/bbs/Beauty/M.1448527110.A.45F.html",
        "imageUrlRandom": "http://photo.l99.com/source/01/1390630276552_zt489h.jpg",
        "_links": {
          "self": {
            "href": "http://beauties-lab317.rhcloud.com/articles/36"
          },
          "articleImages": {
            "href": "http://beauties-lab317.rhcloud.com/articles/36/articleImages"
          }
        }
      },
      {
        "url": "/bbs/Beauty/M.1448528134.A.E57.html",
        "title": "[神人] 輔大捷運站上車的學生",
        "pushNum": 23,
        "author": "ichikatsu200",
        "createdTime": "2015-12-01T14:29:17.264+0000",
        "articleImage": [
          {
            "url": "//i.imgur.com/hkS4aCv.jpg"
          }
        ],
        "randomThumbnailUrl": "http://thumborservice-lab317.rhcloud.com/unsafe/300x300/http://i.imgur.com/hkS4aCv.jpg",
        "urlWithPrefix": "https://www.ptt.cc/bbs/Beauty/M.1448528134.A.E57.html",
        "imageUrlRandom": "http://i.imgur.com/hkS4aCv.jpg",
        "_links": {
          "self": {
            "href": "http://beauties-lab317.rhcloud.com/articles/37"
          },
          "articleImages": {
            "href": "http://beauties-lab317.rhcloud.com/articles/37/articleImages"
          }
        }
      },
      {
        "url": "/bbs/Beauty/M.1448530254.A.EB2.html",
        "title": "[廣告] FB旁邊廣告的女主角",
        "pushNum": 3,
        "author": "weiiin95",
        "createdTime": "2015-12-01T14:29:17.264+0000",
        "articleImage": [
          {
            "url": "//i.imgur.com/krkJJDH.jpg"
          },
          {
            "url": "//i.imgur.com/VMFoYpc.jpg"
          }
        ],
        "randomThumbnailUrl": "http://thumborservice-lab317.rhcloud.com/unsafe/300x300/http://i.imgur.com/VMFoYpc.jpg",
        "urlWithPrefix": "https://www.ptt.cc/bbs/Beauty/M.1448530254.A.EB2.html",
        "imageUrlRandom": "http://i.imgur.com/VMFoYpc.jpg",
        "_links": {
          "self": {
            "href": "http://beauties-lab317.rhcloud.com/articles/38"
          },
          "articleImages": {
            "href": "http://beauties-lab317.rhcloud.com/articles/38/articleImages"
          }
        }
      },
      {
        "url": "/bbs/Beauty/M.1448536935.A.A66.html",
        "title": "[挑戰] 請給我妹一點信心",
        "pushNum": 7,
        "author": "yyyyabigbear",
        "createdTime": "2015-12-01T14:29:17.264+0000",
        "articleImage": [
          {
            "url": "//i.imgur.com/USuV7EM.jpg"
          }
        ],
        "randomThumbnailUrl": "http://thumborservice-lab317.rhcloud.com/unsafe/300x300/http://i.imgur.com/USuV7EM.jpg",
        "urlWithPrefix": "https://www.ptt.cc/bbs/Beauty/M.1448536935.A.A66.html",
        "imageUrlRandom": "http://i.imgur.com/USuV7EM.jpg",
        "_links": {
          "self": {
            "href": "http://beauties-lab317.rhcloud.com/articles/40"
          },
          "articleImages": {
            "href": "http://beauties-lab317.rhcloud.com/articles/40/articleImages"
          }
        }
      },
      {
        "url": "/bbs/Beauty/M.1448545484.A.CF0.html",
        "title": "Re: [神人] 新竹好事多結帳人員（已補圖）",
        "pushNum": 9,
        "author": "jl3000x",
        "createdTime": "2015-12-01T14:29:17.264+0000",
        "articleImage": [
          {
            "url": "//i.imgur.com/V4hnIIF.jpg"
          },
          {
            "url": "//i.imgur.com/uvnPsFR.jpg"
          },
          {
            "url": "//i.imgur.com/TXyoZnR.jpg"
          }
        ],
        "randomThumbnailUrl": "http://thumborservice-lab317.rhcloud.com/unsafe/300x300/http://i.imgur.com/TXyoZnR.jpg",
        "urlWithPrefix": "https://www.ptt.cc/bbs/Beauty/M.1448545484.A.CF0.html",
        "imageUrlRandom": "http://i.imgur.com/TXyoZnR.jpg",
        "_links": {
          "self": {
            "href": "http://beauties-lab317.rhcloud.com/articles/41"
          },
          "articleImages": {
            "href": "http://beauties-lab317.rhcloud.com/articles/41/articleImages"
          }
        }
      },
      {
        "url": "/bbs/Beauty/M.1448642362.A.893.html",
        "title": "[正妹] 無題",
        "pushNum": 69,
        "author": "gaiaesque",
        "createdTime": "2015-12-02T12:10:31.278+0000",
        "articleImage": [
          {
            "url": "//i.imgur.com/KD8bgPl.jpg"
          },
          {
            "url": "//i.imgur.com/huvjgUP.jpg"
          },
          {
            "url": "//i.imgur.com/tIlqPaJ.jpg"
          },
          {
            "url": "//i.imgur.com/BC41iKO.jpg"
          },
          {
            "url": "//i.imgur.com/vLl8vRO.jpg"
          },
          {
            "url": "//i.imgur.com/JOTZRJP.jpg"
          },
          {
            "url": "//i.imgur.com/PPF0IIy.jpg"
          },
          {
            "url": "//i.imgur.com/Kl9LmlR.jpg"
          },
          {
            "url": "//i.imgur.com/OEffppb.jpg"
          },
          {
            "url": "//i.imgur.com/G879Kk5.jpg"
          },
          {
            "url": "//i.imgur.com/bVVCo91.jpg"
          },
          {
            "url": "//i.imgur.com/Pjy1Nt7.jpg"
          },
          {
            "url": "//i.imgur.com/6nYSilf.jpg"
          },
          {
            "url": "//i.imgur.com/XDzlaAe.jpg"
          },
          {
            "url": "//i.imgur.com/3lWbimg.jpg"
          },
          {
            "url": "//i.imgur.com/drmhf9H.jpg"
          },
          {
            "url": "//i.imgur.com/pDyP3pU.jpg"
          },
          {
            "url": "//i.imgur.com/JSaH27b.jpg"
          },
          {
            "url": "//i.imgur.com/d97HefI.jpg"
          },
          {
            "url": "//i.imgur.com/oN3a6dz.jpg"
          },
          {
            "url": "//i.imgur.com/gqccWXp.png"
          },
          {
            "url": "//i.imgur.com/OI05DTy.jpg"
          },
          {
            "url": "//i.imgur.com/MKOdyLE.jpg"
          },
          {
            "url": "//i.imgur.com/qacMIWc.jpg"
          },
          {
            "url": "//i.imgur.com/Nr9f6Sz.jpg"
          },
          {
            "url": "//i.imgur.com/uzWJjdp.jpg"
          },
          {
            "url": "//i.imgur.com/79wQNcv.jpg"
          },
          {
            "url": "//i.imgur.com/mbsX8bd.jpg"
          },
          {
            "url": "//i.imgur.com/W0M5s2S.jpg"
          }
        ],
        "randomThumbnailUrl": "http://thumborservice-lab317.rhcloud.com/unsafe/300x300/http://i.imgur.com/W0M5s2S.jpg",
        "urlWithPrefix": "https://www.ptt.cc/bbs/Beauty/M.1448642362.A.893.html",
        "imageUrlRandom": "http://i.imgur.com/W0M5s2S.jpg",
        "_links": {
          "self": {
            "href": "http://beauties-lab317.rhcloud.com/articles/10"
          },
          "articleImages": {
            "href": "http://beauties-lab317.rhcloud.com/articles/10/articleImages"
          }
        }
      },
      {
        "url": "/bbs/Beauty/M.1448643901.A.D9A.html",
        "title": "[廣告] Charlotte McKinney 夏洛特·麥金尼",
        "pushNum": 1,
        "author": "PrinceBamboo",
        "createdTime": "2015-12-02T12:10:31.278+0000",
        "articleImage": [],
        "randomThumbnailUrl": "",
        "urlWithPrefix": "https://www.ptt.cc/bbs/Beauty/M.1448643901.A.D9A.html",
        "imageUrlRandom": "",
        "_links": {
          "self": {
            "href": "http://beauties-lab317.rhcloud.com/articles/11"
          },
          "articleImages": {
            "href": "http://beauties-lab317.rhcloud.com/articles/11/articleImages"
          }
        }
      },
      {
        "url": "/bbs/Beauty/M.1448700352.A.58A.html",
        "title": "[神人] 金石堂公館店",
        "pushNum": 0,
        "author": "sure0219",
        "createdTime": "2015-12-02T12:10:31.278+0000",
        "articleImage": [
          {
            "url": "//i.imgur.com/kl5GzgM.jpg"
          },
          {
            "url": "//i.imgur.com/PJJP4b0.jpg"
          }
        ],
        "randomThumbnailUrl": "http://thumborservice-lab317.rhcloud.com/unsafe/300x300/http://i.imgur.com/PJJP4b0.jpg",
        "urlWithPrefix": "https://www.ptt.cc/bbs/Beauty/M.1448700352.A.58A.html",
        "imageUrlRandom": "http://i.imgur.com/PJJP4b0.jpg",
        "_links": {
          "self": {
            "href": "http://beauties-lab317.rhcloud.com/articles/12"
          },
          "articleImages": {
            "href": "http://beauties-lab317.rhcloud.com/articles/12/articleImages"
          }
        }
      },
      {
        "url": "/bbs/Beauty/M.1448703108.A.30A.html",
        "title": "[正妹] 東海小清新",
        "pushNum": 56,
        "author": "zxc7",
        "createdTime": "2015-12-02T12:10:31.278+0000",
        "articleImage": [
          {
            "url": "//i.imgur.com/heJmkiK.jpg"
          },
          {
            "url": "//i.imgur.com/ykA4XhD.jpg"
          },
          {
            "url": "//i.imgur.com/99yFEZW.jpg"
          },
          {
            "url": "//i.imgur.com/rbfCYSB.jpg"
          },
          {
            "url": "//i.imgur.com/IOk5LSw.jpg"
          },
          {
            "url": "//i.imgur.com/R8BMXgd.jpg"
          }
        ],
        "randomThumbnailUrl": "http://thumborservice-lab317.rhcloud.com/unsafe/300x300/http://i.imgur.com/R8BMXgd.jpg",
        "urlWithPrefix": "https://www.ptt.cc/bbs/Beauty/M.1448703108.A.30A.html",
        "imageUrlRandom": "http://i.imgur.com/R8BMXgd.jpg",
        "_links": {
          "self": {
            "href": "http://beauties-lab317.rhcloud.com/articles/13"
          },
          "articleImages": {
            "href": "http://beauties-lab317.rhcloud.com/articles/13/articleImages"
          }
        }
      },
      {
        "url": "/bbs/Beauty/M.1448703974.A.A1F.html",
        "title": "[神人] 台北轉運站露腰長腿妹",
        "pushNum": 8,
        "author": "sure0219",
        "createdTime": "2015-12-02T12:10:31.281+0000",
        "articleImage": [
          {
            "url": "//i.imgur.com/OYyhO2z.jpg"
          }
        ],
        "randomThumbnailUrl": "http://thumborservice-lab317.rhcloud.com/unsafe/300x300/http://i.imgur.com/OYyhO2z.jpg",
        "urlWithPrefix": "https://www.ptt.cc/bbs/Beauty/M.1448703974.A.A1F.html",
        "imageUrlRandom": "http://i.imgur.com/OYyhO2z.jpg",
        "_links": {
          "self": {
            "href": "http://beauties-lab317.rhcloud.com/articles/14"
          },
          "articleImages": {
            "href": "http://beauties-lab317.rhcloud.com/articles/14/articleImages"
          }
        }
      },
      {
        "url": "/bbs/Beauty/M.1448708275.A.F87.html",
        "title": "[廣告] 有點天然呆的笑容",
        "pushNum": 17,
        "author": "wxyzzz",
        "createdTime": "2015-12-02T12:10:31.281+0000",
        "articleImage": [
          {
            "url": "//i.imgur.com/wRhyD04.jpg"
          },
          {
            "url": "//i.imgur.com/ntanNYp.jpg"
          },
          {
            "url": "//i.imgur.com/Z9hGWPE.jpg"
          },
          {
            "url": "//i.imgur.com/tSQCxFt.jpg"
          },
          {
            "url": "//i.imgur.com/2Qv5F0c.jpg"
          },
          {
            "url": "//i.imgur.com/PVkhbCY.jpg"
          }
        ],
        "randomThumbnailUrl": "http://thumborservice-lab317.rhcloud.com/unsafe/300x300/http://i.imgur.com/PVkhbCY.jpg",
        "urlWithPrefix": "https://www.ptt.cc/bbs/Beauty/M.1448708275.A.F87.html",
        "imageUrlRandom": "http://i.imgur.com/PVkhbCY.jpg",
        "_links": {
          "self": {
            "href": "http://beauties-lab317.rhcloud.com/articles/15"
          },
          "articleImages": {
            "href": "http://beauties-lab317.rhcloud.com/articles/15/articleImages"
          }
        }
      },
      {
        "url": "/bbs/Beauty/M.1448381551.A.21F.html",
        "title": "[神人] 網拍正妹",
        "pushNum": 0,
        "author": "terrykoc",
        "createdTime": "2015-12-01T00:26:58.095+0000",
        "articleImage": [],
        "randomThumbnailUrl": "",
        "urlWithPrefix": "https://www.ptt.cc/bbs/Beauty/M.1448381551.A.21F.html",
        "imageUrlRandom": "",
        "_links": {
          "self": {
            "href": "http://beauties-lab317.rhcloud.com/articles/58"
          },
          "articleImages": {
            "href": "http://beauties-lab317.rhcloud.com/articles/58/articleImages"
          }
        }
      },
      {
        "url": "/bbs/Beauty/M.1448385468.A.BB6.html",
        "title": "[正妹] トリンドル玲奈",
        "pushNum": 36,
        "author": "dekirin",
        "createdTime": "2015-12-01T00:26:58.095+0000",
        "articleImage": [
          {
            "url": "//i.imgur.com/uokieFn.jpg"
          },
          {
            "url": "//i.imgur.com/l5wL7Yz.jpg"
          },
          {
            "url": "//i.imgur.com/ZtpoGs2.jpg"
          },
          {
            "url": "//i.imgur.com/V3yNqkz.jpg"
          },
          {
            "url": "//i.imgur.com/4p1zvbs.jpg"
          },
          {
            "url": "//i.imgur.com/VA0IUj7.jpg"
          },
          {
            "url": "//i.imgur.com/2Z8zcZE.jpg"
          },
          {
            "url": "//i.imgur.com/rDK6Udj.jpg"
          },
          {
            "url": "//i.imgur.com/foKZBVb.jpg"
          },
          {
            "url": "//i.imgur.com/icNtLAZ.jpg"
          },
          {
            "url": "//i.imgur.com/TX50hI0.jpg"
          },
          {
            "url": "//i.imgur.com/n1k48uW.jpg"
          },
          {
            "url": "//i.imgur.com/64UpZOe.jpg"
          },
          {
            "url": "//i.imgur.com/mdoPezS.jpg"
          },
          {
            "url": "//i.imgur.com/LIPOIte.jpg"
          },
          {
            "url": "//i.imgur.com/9iJ4xfW.jpg"
          },
          {
            "url": "//i.imgur.com/nx1yjyO.jpg"
          },
          {
            "url": "//i.imgur.com/E4um0Cd.jpg"
          },
          {
            "url": "//i.imgur.com/wcTfR76.jpg"
          },
          {
            "url": "//i.imgur.com/OO0OHlI.jpg"
          },
          {
            "url": "//i.imgur.com/6WPBrRN.jpg"
          }
        ],
        "randomThumbnailUrl": "http://thumborservice-lab317.rhcloud.com/unsafe/300x300/http://i.imgur.com/6WPBrRN.jpg",
        "urlWithPrefix": "https://www.ptt.cc/bbs/Beauty/M.1448385468.A.BB6.html",
        "imageUrlRandom": "http://i.imgur.com/6WPBrRN.jpg",
        "_links": {
          "self": {
            "href": "http://beauties-lab317.rhcloud.com/articles/59"
          },
          "articleImages": {
            "href": "http://beauties-lab317.rhcloud.com/articles/59/articleImages"
          }
        }
      },
      {
        "url": "/bbs/Beauty/M.1448389478.A.5EC.html",
        "title": "[正妹] 大眼睛",
        "pushNum": 29,
        "author": "dd5566",
        "createdTime": "2015-12-01T00:26:58.095+0000",
        "articleImage": [
          {
            "url": "//i.imgur.com/9VPPKmO.jpg"
          },
          {
            "url": "//i.imgur.com/d24ACDf.jpg"
          },
          {
            "url": "//i.imgur.com/Ou4Z9wP.jpg"
          },
          {
            "url": "//i.imgur.com/dUkc6S4.jpg"
          },
          {
            "url": "//i.imgur.com/W4ALGfu.jpg"
          },
          {
            "url": "//i.imgur.com/k5MdMCV.jpg"
          },
          {
            "url": "//i.imgur.com/dfzk28A.jpg"
          },
          {
            "url": "//i.imgur.com/hA5KvG2.jpg"
          },
          {
            "url": "//i.imgur.com/IJZc1Fp.jpg"
          },
          {
            "url": "//i.imgur.com/MBeNdzi.jpg"
          },
          {
            "url": "//i.imgur.com/G4XA0mQ.jpg"
          }
        ],
        "randomThumbnailUrl": "http://thumborservice-lab317.rhcloud.com/unsafe/300x300/http://i.imgur.com/G4XA0mQ.jpg",
        "urlWithPrefix": "https://www.ptt.cc/bbs/Beauty/M.1448389478.A.5EC.html",
        "imageUrlRandom": "http://i.imgur.com/G4XA0mQ.jpg",
        "_links": {
          "self": {
            "href": "http://beauties-lab317.rhcloud.com/articles/60"
          },
          "articleImages": {
            "href": "http://beauties-lab317.rhcloud.com/articles/60/articleImages"
          }
        }
      },
      {
        "url": "/bbs/Beauty/M.1448397184.A.78B.html",
        "title": "[神人] 網路美女",
        "pushNum": 6,
        "author": "zmallnight",
        "createdTime": "2015-12-01T00:26:58.095+0000",
        "articleImage": [
          {
            "url": "//i.imgur.com/62jGvSp.jpg"
          },
          {
            "url": "//i.imgur.com/4ygmZg1.jpg"
          },
          {
            "url": "//i.imgur.com/WjUyI2j.jpg"
          }
        ],
        "randomThumbnailUrl": "http://thumborservice-lab317.rhcloud.com/unsafe/300x300/http://i.imgur.com/WjUyI2j.jpg",
        "urlWithPrefix": "https://www.ptt.cc/bbs/Beauty/M.1448397184.A.78B.html",
        "imageUrlRandom": "http://i.imgur.com/WjUyI2j.jpg",
        "_links": {
          "self": {
            "href": "http://beauties-lab317.rhcloud.com/articles/61"
          },
          "articleImages": {
            "href": "http://beauties-lab317.rhcloud.com/articles/61/articleImages"
          }
        }
      },
      {
        "url": "/bbs/Beauty/M.1448481141.A.86B.html",
        "title": "[神人] 康是美廣告女生",
        "pushNum": 13,
        "author": "weilun0429",
        "createdTime": "2015-12-01T00:26:58.095+0000",
        "articleImage": [
          {
            "url": "//i.imgur.com/r2M37tY.jpg"
          },
          {
            "url": "//i.imgur.com/nKptbpy.jpg"
          }
        ],
        "randomThumbnailUrl": "http://thumborservice-lab317.rhcloud.com/unsafe/300x300/http://i.imgur.com/nKptbpy.jpg",
        "urlWithPrefix": "https://www.ptt.cc/bbs/Beauty/M.1448481141.A.86B.html",
        "imageUrlRandom": "http://i.imgur.com/nKptbpy.jpg",
        "_links": {
          "self": {
            "href": "http://beauties-lab317.rhcloud.com/articles/50"
          },
          "articleImages": {
            "href": "http://beauties-lab317.rhcloud.com/articles/50/articleImages"
          }
        }
      },
      {
        "url": "/bbs/Beauty/M.1448498980.A.484.html",
        "title": "[正妹] 浜浦彩乃",
        "pushNum": 1,
        "author": "monkeyrt",
        "createdTime": "2015-12-01T00:26:58.095+0000",
        "articleImage": [
          {
            "url": "http://www.hello-online.org/img/Hamaura%20Ayano-381316.jpg"
          },
          {
            "url": "http://livedoor.blogimg.jp/zitrn/imgs/0/1/01a2071d.jpg"
          }
        ],
        "randomThumbnailUrl": "http://thumborservice-lab317.rhcloud.com/unsafe/300x300/http://livedoor.blogimg.jp/zitrn/imgs/0/1/01a2071d.jpg",
        "urlWithPrefix": "https://www.ptt.cc/bbs/Beauty/M.1448498980.A.484.html",
        "imageUrlRandom": "http://livedoor.blogimg.jp/zitrn/imgs/0/1/01a2071d.jpg",
        "_links": {
          "self": {
            "href": "http://beauties-lab317.rhcloud.com/articles/51"
          },
          "articleImages": {
            "href": "http://beauties-lab317.rhcloud.com/articles/51/articleImages"
          }
        }
      },
      {
        "url": "/bbs/Beauty/M.1423752558.A.849.html",
        "title": "[公告] 表特板板規 (2015.2.12)",
        "pushNum": 0,
        "author": "GeminiMan",
        "createdTime": "2015-12-05T16:30:10.363+0000",
        "articleImage": [],
        "randomThumbnailUrl": "",
        "urlWithPrefix": "https://www.ptt.cc/bbs/Beauty/M.1423752558.A.849.html",
        "imageUrlRandom": "",
        "_links": {
          "self": {
            "href": "http://beauties-lab317.rhcloud.com/articles/7"
          },
          "articleImages": {
            "href": "http://beauties-lab317.rhcloud.com/articles/7/articleImages"
          }
        }
      },
      {
        "url": "/bbs/Beauty/M.1448715003.A.2C2.html",
        "title": "[正妹] 捷運上的混血小蘿莉",
        "pushNum": 13,
        "author": "iragraph",
        "createdTime": "2015-12-03T06:51:10.943+0000",
        "articleImage": [
          {
            "url": "//i.imgur.com/n9nYjy9.jpg"
          },
          {
            "url": "//i.imgur.com/ctOsYeo.jpg"
          }
        ],
        "randomThumbnailUrl": "http://thumborservice-lab317.rhcloud.com/unsafe/300x300/http://i.imgur.com/ctOsYeo.jpg",
        "urlWithPrefix": "https://www.ptt.cc/bbs/Beauty/M.1448715003.A.2C2.html",
        "imageUrlRandom": "http://i.imgur.com/ctOsYeo.jpg",
        "_links": {
          "self": {
            "href": "http://beauties-lab317.rhcloud.com/articles/19"
          },
          "articleImages": {
            "href": "http://beauties-lab317.rhcloud.com/articles/19/articleImages"
          }
        }
      }
    ]
  },
  "page": {
    "size": 20,
    "totalElements": 319,
    "totalPages": 16,
    "number": 1
  }
}